module gitlab.com/juandspy/weather-around

go 1.16

require (
	github.com/kr/fs v0.1.0 // indirect
	github.com/kr/pretty v0.3.0 // indirect
	github.com/sirupsen/logrus v1.8.1 // indirect
	github.com/tools/godep v0.0.0-20180126220526-ce0bfadeb516 // indirect
	golang.org/x/tools v0.1.5 // indirect
)
