[
    {
        "name": "Oviedo",
        "lng": "-5.84476",
        "lat": "43.36029",
        "weather": {
            "current_condition": [
                {
                    "cloudcover": "75",
                    "humidity": "83",
                    "precipMM": "0.0",
                    "temp_C": "17",
                    "weatherDesc": [
                        {
                            "value": "Partly cloudy"
                        }
                    ],
                    "windspeedKmph": "9"
                }
            ],
            "nearest_area": null,
            "weather": [
                {
                    "avgtempC": "17",
                    "maxtempC": "24",
                    "mintempC": "9",
                    "date": "2021-07-15",
                    "hourly": [
                        {
                            "DewPointC": "8",
                            "FeelsLikeC": "9",
                            "HeatIndexC": "9",
                            "WindChillC": "9",
                            "WindGustKmph": "7",
                            "chanceofrain": "0",
                            "cloudcover": "26",
                            "precipMM": "0.0",
                            "tempC": "9",
                            "time": "0",
                            "weatherDesc": [
                                {
                                    "value": "Mist"
                                }
                            ],
                            "windspeedKmph": "3"
                        },
                        {
                            "DewPointC": "9",
                            "FeelsLikeC": "10",
                            "HeatIndexC": "10",
                            "WindChillC": "10",
                            "WindGustKmph": "11",
                            "chanceofrain": "0",
                            "cloudcover": "14",
                            "precipMM": "0.0",
                            "tempC": "10",
                            "time": "300",
                            "weatherDesc": [
                                {
                                    "value": "Mist"
                                }
                            ],
                            "windspeedKmph": "6"
                        }
                    ]
                },
                {
                    "avgtempC": "18",
                    "maxtempC": "26",
                    "mintempC": "13",
                    "date": "2021-07-16",
                    "hourly": [
                        {
                            "DewPointC": "13",
                            "FeelsLikeC": "15",
                            "HeatIndexC": "16",
                            "WindChillC": "15",
                            "WindGustKmph": "8",
                            "chanceofrain": "0",
                            "cloudcover": "9",
                            "precipMM": "0.0",
                            "tempC": "14",
                            "time": "0",
                            "weatherDesc": [
                                {
                                    "value": "Mist"
                                }
                            ],
                            "windspeedKmph": "5"
                        },
                        {
                            "DewPointC": "12",
                            "FeelsLikeC": "14",
                            "HeatIndexC": "13",
                            "WindChillC": "14",
                            "WindGustKmph": "9",
                            "chanceofrain": "0",
                            "cloudcover": "3",
                            "precipMM": "0.0",
                            "tempC": "13",
                            "time": "300",
                            "weatherDesc": [
                                {
                                    "value": "Mist"
                                }
                            ],
                            "windspeedKmph": "5"
                        }
                    ]
                },
                {
                    "avgtempC": "21",
                    "maxtempC": "28",
                    "mintempC": "16",
                    "date": "2021-07-17",
                    "hourly": [
                        {
                            "DewPointC": "14",
                            "FeelsLikeC": "16",
                            "HeatIndexC": "18",
                            "WindChillC": "16",
                            "WindGustKmph": "9",
                            "chanceofrain": "0",
                            "cloudcover": "1",
                            "precipMM": "0.0",
                            "tempC": "16",
                            "time": "0",
                            "weatherDesc": [
                                {
                                    "value": "Mist"
                                }
                            ],
                            "windspeedKmph": "5"
                        },
                        {
                            "DewPointC": "15",
                            "FeelsLikeC": "16",
                            "HeatIndexC": "16",
                            "WindChillC": "16",
                            "WindGustKmph": "9",
                            "chanceofrain": "0",
                            "cloudcover": "0",
                            "precipMM": "0.0",
                            "tempC": "16",
                            "time": "300",
                            "weatherDesc": [
                                {
                                    "value": "Clear"
                                }
                            ],
                            "windspeedKmph": "5"
                        }
                    ]
                }
            ]
        }
    },
    {
        "name": "Lugones",
        "lng": "-5.81215",
        "lat": "43.40272",
        "weather": {
            "current_condition": [
                {
                    "cloudcover": "75",
                    "humidity": "83",
                    "precipMM": "0.0",
                    "temp_C": "17",
                    "weatherDesc": [
                        {
                            "value": "Partly cloudy"
                        }
                    ],
                    "windspeedKmph": "9"
                }
            ],
            "nearest_area": null,
            "weather": [
                {
                    "avgtempC": "17",
                    "maxtempC": "24",
                    "mintempC": "9",
                    "date": "2021-07-15",
                    "hourly": [
                        {
                            "DewPointC": "8",
                            "FeelsLikeC": "9",
                            "HeatIndexC": "9",
                            "WindChillC": "9",
                            "WindGustKmph": "7",
                            "chanceofrain": "0",
                            "cloudcover": "26",
                            "precipMM": "0.0",
                            "tempC": "9",
                            "time": "0",
                            "weatherDesc": [
                                {
                                    "value": "Mist"
                                }
                            ],
                            "windspeedKmph": "3"
                        },
                        {
                            "DewPointC": "9",
                            "FeelsLikeC": "10",
                            "HeatIndexC": "10",
                            "WindChillC": "10",
                            "WindGustKmph": "11",
                            "chanceofrain": "0",
                            "cloudcover": "14",
                            "precipMM": "0.0",
                            "tempC": "10",
                            "time": "300",
                            "weatherDesc": [
                                {
                                    "value": "Mist"
                                }
                            ],
                            "windspeedKmph": "6"
                        }
                    ]
                },
                {
                    "avgtempC": "18",
                    "maxtempC": "26",
                    "mintempC": "13",
                    "date": "2021-07-16",
                    "hourly": [
                        {
                            "DewPointC": "13",
                            "FeelsLikeC": "15",
                            "HeatIndexC": "16",
                            "WindChillC": "15",
                            "WindGustKmph": "8",
                            "chanceofrain": "0",
                            "cloudcover": "9",
                            "precipMM": "0.0",
                            "tempC": "14",
                            "time": "0",
                            "weatherDesc": [
                                {
                                    "value": "Mist"
                                }
                            ],
                            "windspeedKmph": "5"
                        },
                        {
                            "DewPointC": "12",
                            "FeelsLikeC": "14",
                            "HeatIndexC": "13",
                            "WindChillC": "14",
                            "WindGustKmph": "9",
                            "chanceofrain": "0",
                            "cloudcover": "3",
                            "precipMM": "0.0",
                            "tempC": "13",
                            "time": "300",
                            "weatherDesc": [
                                {
                                    "value": "Mist"
                                }
                            ],
                            "windspeedKmph": "5"
                        }
                    ]
                },
                {
                    "avgtempC": "21",
                    "maxtempC": "28",
                    "mintempC": "16",
                    "date": "2021-07-17",
                    "hourly": [
                        {
                            "DewPointC": "14",
                            "FeelsLikeC": "16",
                            "HeatIndexC": "18",
                            "WindChillC": "16",
                            "WindGustKmph": "9",
                            "chanceofrain": "0",
                            "cloudcover": "1",
                            "precipMM": "0.0",
                            "tempC": "16",
                            "time": "0",
                            "weatherDesc": [
                                {
                                    "value": "Mist"
                                }
                            ],
                            "windspeedKmph": "5"
                        },
                        {
                            "DewPointC": "15",
                            "FeelsLikeC": "16",
                            "HeatIndexC": "16",
                            "WindChillC": "16",
                            "WindGustKmph": "9",
                            "chanceofrain": "0",
                            "cloudcover": "0",
                            "precipMM": "0.0",
                            "tempC": "16",
                            "time": "300",
                            "weatherDesc": [
                                {
                                    "value": "Clear"
                                }
                            ],
                            "windspeedKmph": "5"
                        }
                    ]
                }
            ]
        }
    }
]